{
    "$schema": "https://raw.githubusercontent.com/Guts/qgis-deployment-cli/main/docs/schemas/profile/qgis_profile.json",
    "name": "conf_qgis_3d_2024",
    "description": "Profil de démonstration de la gestion des profils QGIS par Oslandia (atelier QGIS 3D 2024).",
    "author": "Florent Fougères et Jean Felder",
    "email": "infos+qdt@oslandia.com",
    "icon": "images/icon_shortcut.ico",
    "qgisMinimumVersion": "3.34.0",
    "qgisMaximumVersion": "3.99.0",
    "version": "1.0.0",
    "plugins": [
        {
            "name": "French Locator Filter",
            "folder_name": "french_locator_filter",
            "official_repository": true,
            "plugin_id": 1846,
            "version": "1.1.0"
        },
        {
            "name": "cesium_ion",
            "folder_name": "cesium_ion",
            "official_repository": true,
            "plugin_id": 3083,
            "version": "v1.0.2"
        }
    ]
}
