<?xml version="1.0" encoding="UTF-8" standalone="no"?>
<!-- Created with Inkscape (http://www.inkscape.org/) -->

<svg
   width="70mm"
   height="60mm"
   viewBox="0 0 70 59.999996"
   version="1.1"
   id="svg1"
   inkscape:version="1.3.2 (1:1.3.2+202311252150+091e20ef0f)"
   sodipodi:docname="osgeo_qgis_conf_2024_icon_final.svg"
   xmlns:inkscape="http://www.inkscape.org/namespaces/inkscape"
   xmlns:sodipodi="http://sodipodi.sourceforge.net/DTD/sodipodi-0.dtd"
   xmlns:xlink="http://www.w3.org/1999/xlink"
   xmlns="http://www.w3.org/2000/svg"
   xmlns:svg="http://www.w3.org/2000/svg">
  <sodipodi:namedview
     id="namedview1"
     pagecolor="#ffffff"
     bordercolor="#666666"
     borderopacity="1.0"
     inkscape:showpageshadow="false"
     inkscape:pageopacity="0.0"
     inkscape:pagecheckerboard="0"
     inkscape:deskcolor="#ffffff"
     inkscape:document-units="mm"
     inkscape:zoom="0.824039"
     inkscape:cx="397.43265"
     inkscape:cy="561.25984"
     inkscape:window-width="1920"
     inkscape:window-height="1171"
     inkscape:window-x="1920"
     inkscape:window-y="0"
     inkscape:window-maximized="1"
     inkscape:current-layer="layer1" />
  <defs
     id="defs1">
    <linearGradient
       inkscape:collect="always"
       xlink:href="#linearGradient439"
       id="linearGradient179"
       gradientUnits="userSpaceOnUse"
       gradientTransform="matrix(0.67303564,0.02126878,-0.02126878,0.67303564,-737.97555,348.95267)"
       x1="69.458984"
       y1="1909.7725"
       x2="336.68164"
       y2="1909.7725" />
    <linearGradient
       id="linearGradient439"
       inkscape:collect="always">
      <stop
         style="stop-color:#000000;stop-opacity:0;"
         offset="0"
         id="stop439" />
      <stop
         style="stop-color:#000000;stop-opacity:1;"
         offset="0.5"
         id="stop441" />
      <stop
         style="stop-color:#000000;stop-opacity:0;"
         offset="1"
         id="stop440" />
    </linearGradient>
    <linearGradient
       inkscape:collect="always"
       xlink:href="#linearGradient439"
       id="linearGradient178"
       gradientUnits="userSpaceOnUse"
       gradientTransform="matrix(0.67337162,0,0,0.67337162,-779.32909,351.69277)"
       x1="69.458984"
       y1="1909.7725"
       x2="336.68164"
       y2="1909.7725" />
    <linearGradient
       inkscape:collect="always"
       xlink:href="#SVGID_4_-9"
       id="linearGradient182"
       gradientUnits="userSpaceOnUse"
       x1="234.4702"
       y1="250.03419"
       x2="232.211"
       y2="101.4977" />
    <linearGradient
       id="SVGID_4_-9"
       gradientUnits="userSpaceOnUse"
       x1="234.4702"
       y1="250.03419"
       x2="232.211"
       y2="101.4977">
      <stop
         offset="0"
         style="stop-color:#589632"
         id="stop27-1" />
      <stop
         offset="1"
         style="stop-color:#93B023"
         id="stop29-2" />
    </linearGradient>
    <linearGradient
       inkscape:collect="always"
       xlink:href="#SVGID_5_-9"
       id="linearGradient183"
       gradientUnits="userSpaceOnUse"
       gradientTransform="matrix(26.145849,0,0,26.145849,-18663.102,-11331.223)"
       x1="188.7529"
       y1="250.2354"
       x2="186.5125"
       y2="102.9362" />
    <linearGradient
       id="SVGID_5_-9"
       gradientUnits="userSpaceOnUse"
       x1="188.7529"
       y1="250.2354"
       x2="186.5125"
       y2="102.9362"
       gradientTransform="matrix(26.145849,0,0,26.145849,-18663.102,-11331.223)">
      <stop
         offset="0"
         style="stop-color:#589632"
         id="stop36-24" />
      <stop
         offset="1"
         style="stop-color:#93B023"
         id="stop38-45" />
    </linearGradient>
  </defs>
  <g
     inkscape:label="Calque 1"
     inkscape:groupmode="layer"
     id="layer1">
    <g
       id="g7"
       transform="translate(630.93324,-1645.184)">
      <path
         style="fill:#4a7524;fill-opacity:1;stroke:none;stroke-width:0.319826px;stroke-linecap:butt;stroke-linejoin:miter;stroke-opacity:1"
         d="m -599.63149,1678.2568 c -0.25082,0.013 -3.24138,-0.2339 -3.24138,-0.2339 l -0.60598,0.5231 c 0,0 -0.37443,0.6919 -0.0367,0.6919 0.33758,0 2.98092,0.2829 2.98092,0.2829 z"
         id="path233-9-9-9-4-8-4"
         inkscape:export-filename="../../../osgeo_qgis_2024_icon.png"
         inkscape:export-xdpi="150"
         inkscape:export-ydpi="150" />
      <path
         style="fill:#4a7524;fill-opacity:1;stroke:none;stroke-width:0.319826px;stroke-linecap:butt;stroke-linejoin:miter;stroke-opacity:1"
         d="m -596.87714,1677.1017 c -0.18567,-0.1946 -1.22392,-2.3489 -1.37378,-2.3131 -0.14988,0.036 -2.72679,0.1536 -2.72679,0.1536 l -0.80235,-0.1649 c 0,0 -0.55224,0.518 -0.38952,0.6233 0.16274,0.1051 1.92936,0.3231 1.92936,0.3231 l 1.15442,1.361 0.4092,1.2766 z"
         id="path232-7-2-0-1-9-2" />
      <path
         id="path221-3-9-3-09-1-5-2"
         style="opacity:0.515904;fill:#495761;fill-opacity:1;stroke:none;stroke-width:3.41662;stroke-linecap:round;stroke-linejoin:round;stroke-dasharray:none;stroke-opacity:1"
         d="m -592.89203,1676.2686 a 13.924111,13.924111 0 0 0 -7.11676,1.9852 c 3.41404,-0.9049 7.60745,-1.2677 11.94042,-1.1201 a 13.924111,13.924111 0 0 0 -4.82366,-0.8651 z" />
      <path
         style="fill:#619a30;fill-opacity:1;stroke:none;stroke-width:0.319826px;stroke-linecap:butt;stroke-linejoin:miter;stroke-opacity:1"
         d="m -596.60933,1676.9278 -0.062,-2.2795 0.64833,-1.3061 1.86434,-0.034 0.82863,1.3746 0.0392,1.9915 z"
         id="path229-3-4-4-8-7-6" />
      <path
         style="color:#000000;fill:url(#linearGradient179);stroke-width:0.673372;-inkscape-stroke:none"
         d="m -609.03259,1665.9436 c -7.02517,0.3042 -7.73782,0.4575 -10.89427,0.5337 16.45152,-0.074 32.20392,-1.7196 56.84716,-7.7865 l 0.36736,-0.091 c -3.23383,0.3346 -24.21959,6.3864 -46.32025,7.3433 z"
         id="path436-5-5-0-0-9-9"
         sodipodi:nodetypes="scscs" />
      <path
         style="color:#000000;fill:url(#linearGradient178);stroke-width:0.673372;-inkscape-stroke:none"
         d="m -577.94626,1649.5415 -19.29762,4.4888 -17.71151,3.6114 c -11.87404,2.4334 -26.21908,5.3137 0.0592,0.3153 l 17.72072,-3.6129 19.30288,-4.4899 15.70981,-3.7339 z"
         id="path435-5-2-9-7-2-8"
         sodipodi:nodetypes="cccccccc" />
      <path
         style="fill:#4a7524;fill-opacity:1;stroke:none;stroke-width:0.319826px;stroke-linecap:butt;stroke-linejoin:miter;stroke-opacity:1"
         d="m -590.93511,1662.7823 0.9241,0.5136 1.16117,0.1504 0.31619,0.5997 -0.33916,0.3632 -0.38811,0.3648 -1.86459,0.013 z"
         id="path234-4-4-3-0-2-2" />
      <path
         style="fill:#4a7524;fill-opacity:1;stroke:none;stroke-width:0.319826px;stroke-linecap:butt;stroke-linejoin:miter;stroke-opacity:1"
         d="m -593.08876,1675.0733 c 0.28025,-0.023 1.55938,-0.388 1.55938,-0.388 l -2.01011,-9.5026 -0.57751,-0.9917 -1.51398,-0.3542 -0.62615,-0.5135 2.58653,-0.4004 1.68204,0.088 c 0,0 0.0892,2.9004 0.18153,3.428 0.0922,0.5275 1.69047,5.8688 1.65447,6.1287 -0.036,0.26 -0.0604,1.3652 -0.0307,1.5199 0.0298,0.1548 -0.0148,0.9802 -0.18699,1.0123 -0.17244,0.033 -2.72453,0.013 -2.72453,0.013 z"
         id="path230-0-3-9-8-2-4"
         sodipodi:nodetypes="ccccccccsssccc" />
      <path
         style="fill:#8fae24;fill-opacity:1;stroke:none;stroke-width:0.319826px;stroke-linecap:butt;stroke-linejoin:miter;stroke-opacity:1"
         d="m -593.47735,1676.356 4.91222,0.5536 0.74114,-0.8265 -0.41124,-0.7506 2.43216,-0.054 -0.17025,-0.3442 -1.68879,-1.3403 -0.82821,-0.1442 -2.31041,-7.5514 0.14335,-3.1828 1.08398,-7.0833 0.5016,-1.8541 0.47823,-0.5127 1.17595,-0.069 0.17609,-1.5564 -9.767,2.0243 -0.10547,1.484 3.38023,-0.6718 -0.25082,8.7269 1.57777,0.266 0.54968,5.6425 1.18055,4.5638 -1.49844,1.1624 -0.98088,0.1896 z"
         id="path231-5-9-9-7-7-1" />
      <path
         id="path235-4-5-0-2-6-8"
         style="fill:#619a30;fill-opacity:1;stroke:none;stroke-width:3.34231;stroke-linecap:round;stroke-linejoin:round;stroke-dasharray:none;stroke-opacity:1"
         d="m -588.08159,1649.943 a 1.3699852,1.8069685 0 0 0 -1.37045,1.8068 1.3699852,1.8069685 0 0 0 1.37045,1.8069 1.3699852,1.8069685 0 0 0 1.36975,-1.8069 1.3699852,1.8069685 0 0 0 -1.36975,-1.8068 z m -3.29345,0.6742 a 1.3699852,1.8069685 0 0 0 -1.36975,1.8069 1.3699852,1.8069685 0 0 0 1.36975,1.8069 1.3699852,1.8069685 0 0 0 1.37044,-1.8069 1.3699852,1.8069685 0 0 0 -1.37044,-1.8069 z m -3.29277,0.6934 a 1.3699852,1.8069685 0 0 0 -1.37044,1.8069 1.3699852,1.8069685 0 0 0 1.37044,1.8069 1.3699852,1.8069685 0 0 0 1.36975,-1.8069 1.3699852,1.8069685 0 0 0 -1.36975,-1.8069 z m -3.29346,0.6867 a 1.3699852,1.8069685 0 0 0 -1.36975,1.8067 1.3699852,1.8069685 0 0 0 1.36975,1.8076 1.3699852,1.8069685 0 0 0 1.37044,-1.8076 1.3699852,1.8069685 0 0 0 -1.37044,-1.8067 z" />
      <path
         id="path235-4-5-0-2-6-8-4"
         style="fill:#5d942e;fill-opacity:1;stroke:none;stroke-width:3.34231;stroke-linecap:round;stroke-linejoin:round;stroke-dasharray:none;stroke-opacity:1"
         d="m -588.08161,1649.943 c -0.75674,-4e-4 -1.37036,0.8086 -1.37044,1.8068 3e-5,0.9981 0.61366,1.8073 1.37044,1.8069 -0.67038,0.013 -1.05145,-3.5981 0,-3.6137 z m -3.29344,0.6742 c -0.75652,10e-5 -1.36973,0.809 -1.36976,1.8069 3e-5,0.9978 0.61324,1.8067 1.36976,1.8069 -0.8358,0.094 -1.24085,-3.5073 0,-3.6138 z m -3.29277,0.6934 c -0.75678,-4e-4 -1.37042,0.8088 -1.37045,1.8069 3e-5,0.9982 0.61367,1.8073 1.37045,1.8069 -0.80066,0.061 -1.30024,-3.5396 0,-3.6138 z m -3.29346,0.6867 c -0.75648,10e-5 -1.36967,0.809 -1.36975,1.8067 -2.6e-4,0.9981 0.61305,1.8075 1.36975,1.8076 -0.44391,-0.2679 -1.3489,-3.0623 0,-3.6143 z"
         sodipodi:nodetypes="cscccscccscccscc" />
      <g
         id="g104-4-7-0-2-0-2-6-8-9-3"
         transform="matrix(0.38450735,0,0,0.38450735,-613.50835,1638.3899)">
        <g
           transform="matrix(0.01859362,0,0,0.01859362,309.82414,261.40276)"
           id="g7384-2-5-2-1-4-8-8-8-8-5-9-6-4-3-7-8-7-2-5-4-3-8-2-2"
           style="stroke-width:0.827033">
          <polygon
             points="216.513,180 198.306,162 176,162 176,183.433 195,202.37 195,180 "
             id="polygon3-8-7-4-0-8-7-8-8-60-6-9-7-29-2-8-8-5-0-9-1-4-8-9-2-6"
             transform="matrix(26.145849,0,0,26.145849,-18663.102,-11331.223)"
             style="fill:#ee7913;stroke-width:0.827033" />
          <polygon
             points="225.617,189 204,189 204,211.34 240.782,248 264,248 264,226.946 "
             id="polygon31-9-0-3-2-7-6-8-8-4-2-3-6-1-7-8-6-7-2-2-1-3-5-7-4-5"
             style="fill:url(#linearGradient182);stroke-width:0.827033"
             transform="matrix(26.145849,0,0,26.145849,-18663.102,-11331.223)" />
          <polygon
             points="225.617,189 216.513,180 195,180 195,202.37 204,211.34 204,189 "
             id="polygon33-60-9-9-3-9-5-9-9-67-4-5-2-2-4-3-3-4-0-8-0-8-6-7-7-2"
             transform="matrix(26.145849,0,0,26.145849,-18663.102,-11331.223)"
             style="fill:#f0e64a;stroke-width:0.827033" />
          <path
             d="m -13484.864,-5661.1292 c -85.209,19.6094 -173.818,30.2508 -265.223,30.2508 -653.777,0 -1209.795,-537.611 -1209.795,-1234.6593 0,-697.0483 549.899,-1222.8152 1209.795,-1222.8152 659.895,0 1185.348,525.7407 1185.348,1222.8152 0,113.3684 -14.119,222.4489 -40.239,325.7773 l 605.12,605.0149 c 156.012,-273.3548 243.287,-591.1838 243.287,-935.4462 0,-1074.3329 -857.349,-1878.7361 -2005.753,-1878.7361 -1143.149,0 -2000.471,799.1217 -2000.471,1878.7361 0,1084.8959 857.349,1899.9143 2000.471,1899.9143 295.108,0 570.895,-54.2788 817.947,-153.0578 z"
             id="path40-64-3-4-7-2-6-7-7-6-7-7-7-7-0-1-7-1-0-1-8-6-1-6-7-6"
             style="fill:url(#linearGradient183);stroke-width:0.827033"
             inkscape:connector-curvature="0" />
          <path
             d="m -14061.432,-7095.595 2300.834,2248.543 v -550.493 l -1003.53,-992.1121 -238.031,-235.3126 -476.038,-470.6253 z"
             id="polygon4174-0-6-6-5-0-9-7-7-0-9-0-1-0-3-8-7-8-0-2-5-0-1-4-5-5"
             style="fill:#ffffff;fill-opacity:0.172549;stroke-width:0.827033"
             inkscape:connector-curvature="0"
             sodipodi:nodetypes="ccccccc" />
        </g>
        <g
           id="text3146-9-0-2-9-2-3-6-6-9-3-8-5-9-2-9-2-5-4-4-0-8-5-3-4-8"
           style="font-style:normal;font-weight:normal;font-size:27.952px;line-height:125%;font-family:Sans;letter-spacing:0px;word-spacing:0px;fill:#c1de62;fill-opacity:1;stroke:none;stroke-width:0.827033"
           transform="matrix(0.30422855,0.30422855,-0.30422855,0.30422855,6.3893046,88.824382)">
          <path
             inkscape:connector-curvature="0"
             id="path3142-62-3-2-3-7-4-4-7-9-1-8-3-8-6-3-9-0-7-6-9-9-0-8-7"
             style="font-variant:normal;font-weight:bold;font-stretch:normal;font-family:Arial;-inkscape-font-specification:'Arial Bold';fill:#c1de62;stroke-width:0.827033"
             d="M 201.19357,7.2519732 V -12.756639 h 13.71669 v 3.3848132 h -9.67675 v 4.7360084 h 8.35285 v 3.3848129 h -8.35285 v 8.5029777 h -4.03994" />
          <path
             inkscape:connector-curvature="0"
             id="path3144-8-6-8-2-7-4-3-3-5-2-9-8-6-0-4-7-7-8-8-4-2-8-3-1-9"
             style="font-variant:normal;font-weight:bold;font-stretch:normal;font-family:Arial;-inkscape-font-specification:'Arial Bold';fill:#c1de62;stroke-width:0.827033"
             d="M 218.26777,7.2519732 V -12.756639 h 8.50298 c 2.13824,2e-5 3.68961,0.181999 4.65412,0.545938 0.97357,0.354878 1.75153,0.991805 2.33388,1.910781 0.58232,0.9190119 0.87348,1.9699406 0.8735,3.1527898 -2e-5,1.5013412 -0.44132,2.7433479 -1.3239,3.7260239 -0.88261,0.9735984 -2.20196,1.5877775 -3.95804,1.8425393 0.87348,0.50955 1.5923,1.06913549 2.15645,1.67875801 0.57322,0.60963683 1.34208,1.69241189 2.30658,3.24832849 l 2.44308,3.9034537 h -4.83155 L 228.5041,2.898121 c -1.03729,-1.5559161 -1.74701,-2.53405328 -2.12915,-2.93441438 -0.38217,-0.40944548 -0.78707,-0.68696346 -1.21472,-0.83255479 -0.42766,-0.15467403 -1.10553,-0.23201513 -2.03361,-0.23202343 h -0.81891 v 8.3528448 h -4.03994 m 4.03994,-11.5465796 h 2.98901 c 1.93807,1.15e-5 3.14823,-0.081879 3.63048,-0.2456719 0.48224,-0.1637693 0.85984,-0.4458368 1.13282,-0.8462032 0.27296,-0.4003412 0.40944,-0.9007835 0.40946,-1.5013284 -2e-5,-0.6733081 -0.182,-1.2146957 -0.54594,-1.6241642 -0.35487,-0.418536 -0.85986,-0.6824055 -1.51498,-0.7916095 -0.32757,-0.045478 -1.31026,-0.068226 -2.94806,-0.068242 h -3.15279 v 5.0772194" />
        </g>
      </g>
      <text
         xml:space="preserve"
         style="font-style:normal;font-weight:normal;font-size:0.0870257px;line-height:0%;font-family:sans-serif;letter-spacing:0px;word-spacing:0px;fill:#000000;fill-opacity:0.380392;stroke:none;stroke-width:0.00725215"
         x="-860.30957"
         y="1539.9857"
         id="text7399-0-7-1-9-5-3-5-9-9-5-5-4-0-0-9-6-8-0-1-3-2-3-6"
         inkscape:export-filename="/home/sbe/osgeo_qgis_2020_01.png"
         inkscape:export-xdpi="44"
         inkscape:export-ydpi="44"
         transform="rotate(-9.7502646)"><tspan
           sodipodi:role="line"
           x="-860.30957"
           y="1539.9857"
           style="font-style:normal;font-variant:normal;font-weight:600;font-stretch:normal;font-size:1.7533px;line-height:125%;font-family:Conthrax;-inkscape-font-specification:'Conthrax, Semi-Bold';font-variant-ligatures:normal;font-variant-caps:normal;font-variant-numeric:normal;font-feature-settings:normal;text-align:start;writing-mode:lr-tb;text-anchor:start;fill:#000000;fill-opacity:0.380392;stroke-width:0.00725215"
           id="tspan1971-6-9-9-9-0-0-1-8-9-2-0-8-2-9-7-5-1-6">2024</tspan></text>
    </g>
  </g>
</svg>
